D:\Workspace\JPOP\Week 4\github\Java_Spring_Rest\bookservice\src\main\java\com\JPoP2\error\BookNotFoundException.java
D:\Workspace\JPOP\Week 4\github\Java_Spring_Rest\bookservice\src\main\java\com\JPoP2\entity\Book.java
D:\Workspace\JPOP\Week 4\github\Java_Spring_Rest\bookservice\src\main\java\com\JPoP2\repository\BookRepository.java
D:\Workspace\JPOP\Week 4\github\Java_Spring_Rest\bookservice\src\main\java\com\JPoP2\config\SwaggerConfig.java
D:\Workspace\JPOP\Week 4\github\Java_Spring_Rest\bookservice\src\main\java\com\JPoP2\BookRestController.java
D:\Workspace\JPOP\Week 4\github\Java_Spring_Rest\bookservice\src\main\java\com\JPoP2\BookServiceApplication.java
D:\Workspace\JPOP\Week 4\github\Java_Spring_Rest\bookservice\src\main\java\com\JPoP2\service\BookService.java
D:\Workspace\JPOP\Week 4\github\Java_Spring_Rest\bookservice\src\main\java\com\JPoP2\service\BookServiceImpl.java
